<?xml version="1.0" encoding="UTF-8" standalone="no"?>
<!-- Created with Inkscape (http://www.inkscape.org/) -->

<svg
   xmlns:dc="http://purl.org/dc/elements/1.1/"
   xmlns:cc="http://creativecommons.org/ns#"
   xmlns:rdf="http://www.w3.org/1999/02/22-rdf-syntax-ns#"
   xmlns:svg="http://www.w3.org/2000/svg"
   xmlns="http://www.w3.org/2000/svg"
   xmlns:sodipodi="http://sodipodi.sourceforge.net/DTD/sodipodi-0.dtd"
   xmlns:inkscape="http://www.inkscape.org/namespaces/inkscape"
   width="128"
   height="128"
   viewBox="0 0 33.866667 33.866667"
   version="1.1"
   id="svg8"
   inkscape:version="0.92.4 5da689c313, 2019-01-14"
   sodipodi:docname="V1.svg">
  <defs
     id="defs2" />
  <sodipodi:namedview
     id="base"
     pagecolor="#ffffff"
     bordercolor="#666666"
     borderopacity="1.0"
     inkscape:pageopacity="0.0"
     inkscape:pageshadow="2"
     inkscape:zoom="6.4768613"
     inkscape:cx="63.925948"
     inkscape:cy="64.126938"
     inkscape:document-units="px"
     inkscape:current-layer="svg8"
     showgrid="false"
     units="px"
     width="1920px"
     inkscape:window-width="1920"
     inkscape:window-height="1021"
     inkscape:window-x="0"
     inkscape:window-y="0"
     inkscape:window-maximized="1"
     showguides="true"
     inkscape:guide-bbox="true">
    <sodipodi:guide
       position="16.933333,19.958683"
       orientation="1,0"
       id="guide820"
       inkscape:locked="false"
       inkscape:label=""
       inkscape:color="rgb(0,0,255)" />
  </sodipodi:namedview>
  <metadata
     id="metadata5">
    <rdf:RDF>
      <cc:Work
         rdf:about="">
        <dc:format>image/svg+xml</dc:format>
        <dc:type
           rdf:resource="http://purl.org/dc/dcmitype/StillImage" />
        <dc:title></dc:title>
      </cc:Work>
    </rdf:RDF>
  </metadata>
  <g
     inkscape:label="Ebene 1"
     inkscape:groupmode="layer"
     id="layer1"
     transform="translate(0,-263.13332)" />
  <circle
     style="opacity:1;fill:none;fill-opacity:1;stroke:#000000;stroke-width:2.64583325;stroke-linecap:round;stroke-linejoin:round;stroke-miterlimit:4;stroke-dasharray:none;stroke-dashoffset:0;stroke-opacity:1;paint-order:stroke fill markers"
     id="path812"
     cx="16.933334"
     cy="16.933334"
     r="14.2875" />
  <path
     sodipodi:type="star"
     style="opacity:1;fill:none;fill-opacity:1;stroke:#000000;stroke-width:1.32291663;stroke-linecap:round;stroke-linejoin:round;stroke-miterlimit:4;stroke-dasharray:none;stroke-dashoffset:0;stroke-opacity:1;paint-order:stroke fill markers"
     id="path814"
     sodipodi:sides="33"
     sodipodi:cx="16.912773"
     sodipodi:cy="16.935006"
     sodipodi:r1="16.122553"
     sodipodi:r2="14.467414"
     sodipodi:arg1="-1.5695211"
     sodipodi:arg2="-1.4766823"
     inkscape:flatsided="false"
     inkscape:rounded="0"
     inkscape:randomized="0"
     d="m 16.933333,0.81246613 1.339018,1.71915077 1.711821,-1.4239045 0.989469,1.9414942 1.950362,-1.0742083 0.604157,2.093667 2.118412,-0.6856874 0.19701,2.1701692 2.209897,-0.2723841 -0.217257,2.1682359 2.22151,0.150764 -0.623672,2.0879368 2.152832,0.5684633 -1.007547,1.932174 2.006346,0.965616 -1.355005,1.706578 1.787344,1.32787 -1.653491,1.419302 1.503744,1.64213 -1.892215,1.080728 1.165794,1.89704 -2.062549,0.703094 0.785709,2.083386 -2.158337,0.300048 0.377227,2.194433 -2.176118,-0.113842 -0.04489,2.226167 -2.115248,-0.523618 -0.465383,2.177443 -1.977927,-0.914469 -0.869057,2.050019 -1.769118,-1.272268 -1.241321,1.848502 -1.49637,-1.584085 -1.56872,1.580176 -1.169538,-1.838648 -1.839421,1.254738 -0.800437,-2.026758 -2.0436416,0.883951 -0.4024057,-2.141616 -2.1739986,0.481215 0.01017,-2.17907 -2.225782,0.06109 L 5.1370842,25.33972 2.9399642,24.97847 3.7592837,22.959272 1.6702354,22.188743 2.8568845,20.361091 0.9514116,19.209132 2.4625018,17.639083 0.80947302,16.147328 2.5903896,14.891628 1.2495497,13.113993 3.2359256,12.218025 2.255736,10.218759 4.3757786,9.7149067 3.7916659,7.5662677 5.9687511,7.4727415 5.8018267,5.2523871 7.9572692,5.5725672 8.2135661,3.3607468 10.269462,4.083061 l 0.670256,-2.1233454 1.882044,1.0983419 1.059989,-1.9581271 1.640171,1.4346728 z"
     inkscape:transform-center-x="0.2914874"
     inkscape:transform-center-y="0.33435991" />
  <g
     id="g868">
    <rect
       transform="rotate(-45)"
       rx="0.79374999"
       y="12.922352"
       x="7.849997"
       height="3.175"
       width="3.175"
       id="rect864"
       style="opacity:1;fill:#000000;fill-opacity:1;stroke:none;stroke-width:1.32291675;stroke-linecap:round;stroke-linejoin:round;stroke-miterlimit:4;stroke-dasharray:none;stroke-dashoffset:0;stroke-opacity:1;paint-order:stroke fill markers" />
    <circle
       r="0.79374999"
       cy="3.7041667"
       cx="16.933334"
       id="path862"
       style="opacity:1;fill:#ffffe4;fill-opacity:1;stroke:none;stroke-width:1.32291663;stroke-linecap:round;stroke-linejoin:round;stroke-miterlimit:4;stroke-dasharray:none;stroke-dashoffset:0;stroke-opacity:1;paint-order:stroke fill markers" />
  </g>
</svg>
