<?xml version="1.0" encoding="UTF-8" standalone="no"?>
<!-- Created with Inkscape (http://www.inkscape.org/) -->

<svg
   xmlns:dc="http://purl.org/dc/elements/1.1/"
   xmlns:cc="http://creativecommons.org/ns#"
   xmlns:rdf="http://www.w3.org/1999/02/22-rdf-syntax-ns#"
   xmlns:svg="http://www.w3.org/2000/svg"
   xmlns="http://www.w3.org/2000/svg"
   xmlns:xlink="http://www.w3.org/1999/xlink"
   xmlns:sodipodi="http://sodipodi.sourceforge.net/DTD/sodipodi-0.dtd"
   xmlns:inkscape="http://www.inkscape.org/namespaces/inkscape"
   width="128"
   height="128"
   viewBox="0 0 33.866667 33.866667"
   version="1.1"
   id="svg8"
   inkscape:version="0.92.4 5da689c313, 2019-01-14"
   sodipodi:docname="V10-fancy.svg"
   inkscape:export-filename="/home/vp/rust/logo_rework/V9-Wheel.png"
   inkscape:export-xdpi="600"
   inkscape:export-ydpi="600">
  <defs
     id="defs2">
    <linearGradient
       id="linearGradient1692"
       inkscape:collect="always">
      <stop
         id="stop1688"
         offset="0"
         style="stop-color:#390000;stop-opacity:1" />
      <stop
         id="stop1690"
         offset="1"
         style="stop-color:#663900;stop-opacity:1" />
    </linearGradient>
    <linearGradient
       inkscape:collect="always"
       id="linearGradient1635">
      <stop
         style="stop-color:#c1cac7;stop-opacity:1;"
         offset="0"
         id="stop1631" />
      <stop
         id="stop1649"
         offset="0.97207016"
         style="stop-color:#3b0000;stop-opacity:0.82417583" />
      <stop
         id="stop1639"
         offset="0.98710281"
         style="stop-color:#fff7e7;stop-opacity:0.7087912" />
      <stop
         style="stop-color:#ffc36d;stop-opacity:0.90196079"
         offset="1"
         id="stop1633" />
    </linearGradient>
    <radialGradient
       inkscape:collect="always"
       xlink:href="#linearGradient1635"
       id="radialGradient1637"
       cx="16.933334"
       cy="16.933334"
       fx="16.933334"
       fy="16.933334"
       r="15.015104"
       gradientUnits="userSpaceOnUse"
       gradientTransform="matrix(0.98860858,0,0,1,0.19289519,0)" />
    <radialGradient
       inkscape:collect="always"
       xlink:href="#linearGradient1692"
       id="radialGradient1678"
       cx="63.925114"
       cy="63.872852"
       fx="63.925114"
       fy="63.872852"
       r="63.363464"
       gradientTransform="matrix(1,0,0,0.99907094,0,0.05934141)"
       gradientUnits="userSpaceOnUse" />
    <radialGradient
       inkscape:collect="always"
       xlink:href="#linearGradient1692"
       id="radialGradient1686"
       cx="64.422874"
       cy="64"
       fx="64.422874"
       fy="64"
       r="50.630859"
       gradientTransform="matrix(1.2425957,0,0,1.2516155,-16.051591,-16.103393)"
       gradientUnits="userSpaceOnUse" />
    <radialGradient
       inkscape:collect="always"
       xlink:href="#linearGradient1692"
       id="radialGradient1678-2"
       cx="63.925114"
       cy="63.872852"
       fx="63.925114"
       fy="63.872852"
       r="63.363464"
       gradientTransform="matrix(0.26458334,0,0,0.26433753,-7.22104,-10.526898)"
       gradientUnits="userSpaceOnUse" />
    <radialGradient
       inkscape:collect="always"
       xlink:href="#linearGradient1635"
       id="radialGradient1637-8"
       cx="16.933334"
       cy="16.933334"
       fx="16.933334"
       fy="16.933334"
       r="15.015104"
       gradientUnits="userSpaceOnUse"
       gradientTransform="matrix(0.98860859,0,0,1,-7.0281448,-10.542599)" />
    <radialGradient
       inkscape:collect="always"
       xlink:href="#linearGradient1692"
       id="radialGradient1686-9"
       cx="64.422874"
       cy="64"
       fx="64.422874"
       fy="64"
       r="50.630859"
       gradientTransform="matrix(0.32877012,0,0,0.33115661,-11.468023,-14.803289)"
       gradientUnits="userSpaceOnUse" />
    <filter
       style="color-interpolation-filters:sRGB;"
       inkscape:label="Noise Fill"
       id="filter2325">
      <feTurbulence
         type="fractalNoise"
         baseFrequency="0.02 0.04"
         numOctaves="5"
         seed="1"
         result="turbulence"
         id="feTurbulence2309" />
      <feComposite
         in="SourceGraphic"
         in2="turbulence"
         operator="in"
         result="composite1"
         id="feComposite2311" />
      <feColorMatrix
         values="1 0 0 0 0 0 1 0 0 0 0 0 1 0 0 0 0 0 3 -1 "
         result="color"
         id="feColorMatrix2313" />
      <feFlood
         flood-opacity="1"
         flood-color="rgb(21,40,57)"
         result="flood"
         id="feFlood2315" />
      <feMerge
         result="merge"
         id="feMerge2321">
        <feMergeNode
           in="flood"
           id="feMergeNode2317" />
        <feMergeNode
           in="color"
           id="feMergeNode2319" />
      </feMerge>
      <feComposite
         in2="SourceGraphic"
         operator="in"
         result="composite2"
         id="feComposite2323" />
    </filter>
  </defs>
  <sodipodi:namedview
     id="base"
     pagecolor="#ffffff"
     bordercolor="#666666"
     borderopacity="1.0"
     inkscape:pageopacity="0.0"
     inkscape:pageshadow="2"
     inkscape:zoom="9.28125"
     inkscape:cx="64"
     inkscape:cy="64"
     inkscape:document-units="px"
     inkscape:current-layer="layer5"
     showgrid="false"
     units="px"
     width="1920px"
     inkscape:window-width="2560"
     inkscape:window-height="1385"
     inkscape:window-x="0"
     inkscape:window-y="0"
     inkscape:window-maximized="1"
     showguides="true"
     inkscape:guide-bbox="true"
     inkscape:pagecheckerboard="true">
    <sodipodi:guide
       position="16.933333,-3.96875"
       orientation="1,0"
       id="guide820"
       inkscape:locked="false"
       inkscape:label=""
       inkscape:color="rgb(0,0,255)" />
    <sodipodi:guide
       position="-5.882479,16.933333"
       orientation="0,1"
       id="guide840"
       inkscape:locked="false"
       inkscape:label=""
       inkscape:color="rgb(0,0,255)" />
    <sodipodi:guide
       position="-4.9578498,23.283334"
       orientation="0,1"
       id="guide1073"
       inkscape:locked="false"
       inkscape:label=""
       inkscape:color="rgb(0,0,255)" />
    <sodipodi:guide
       position="-7.9980407,10.583333"
       orientation="0,1"
       id="guide1075"
       inkscape:locked="false"
       inkscape:label=""
       inkscape:color="rgb(0,0,255)" />
    <sodipodi:guide
       position="8.4666667,-3.96875"
       orientation="1,0"
       id="guide1090"
       inkscape:locked="false"
       inkscape:label=""
       inkscape:color="rgb(0,0,255)" />
    <sodipodi:guide
       position="25.4,-2.1166667"
       orientation="1,0"
       id="guide1092"
       inkscape:locked="false"
       inkscape:label=""
       inkscape:color="rgb(0,0,255)" />
    <sodipodi:guide
       position="20.6375,-0.3252123"
       orientation="1,0"
       id="guide1105"
       inkscape:locked="false"
       inkscape:label=""
       inkscape:color="rgb(0,0,255)" />
    <sodipodi:guide
       position="-2.0325769,15.610417"
       orientation="0,1"
       id="guide1107"
       inkscape:locked="false"
       inkscape:label=""
       inkscape:color="rgb(0,0,255)" />
    <sodipodi:guide
       position="-3.252123,9.2604168"
       orientation="0,1"
       id="guide1111"
       inkscape:locked="false"
       inkscape:label=""
       inkscape:color="rgb(0,0,255)" />
    <sodipodi:guide
       position="-2.1545315,24.60625"
       orientation="0,1"
       id="guide1115"
       inkscape:locked="false"
       inkscape:label=""
       inkscape:color="rgb(0,0,255)" />
    <sodipodi:guide
       position="-3.8618961,21.960417"
       orientation="0,1"
       id="guide1117"
       inkscape:locked="false"
       inkscape:label=""
       inkscape:color="rgb(0,0,255)" />
    <sodipodi:guide
       position="13.229167,0"
       orientation="1,0"
       id="guide1119"
       inkscape:locked="false"
       inkscape:label=""
       inkscape:color="rgb(0,0,255)" />
    <sodipodi:guide
       position="35.71875,11.90625"
       orientation="0,1"
       id="guide843"
       inkscape:locked="false"
       inkscape:label=""
       inkscape:color="rgb(0,0,255)" />
    <sodipodi:guide
       position="37.399415,18.25625"
       orientation="0,1"
       id="guide1467"
       inkscape:locked="false"
       inkscape:label=""
       inkscape:color="rgb(0,0,255)" />
    <inkscape:grid
       type="xygrid"
       id="grid1488" />
  </sodipodi:namedview>
  <metadata
     id="metadata5">
    <rdf:RDF>
      <cc:Work
         rdf:about="">
        <dc:format>image/svg+xml</dc:format>
        <dc:type
           rdf:resource="http://purl.org/dc/dcmitype/StillImage" />
        <dc:title></dc:title>
      </cc:Work>
    </rdf:RDF>
  </metadata>
  <g
     inkscape:groupmode="layer"
     id="layer3"
     inkscape:label="Letter"
     style="display:inline">
    <path
       style="color:#000000;font-style:normal;font-variant:normal;font-weight:normal;font-stretch:normal;font-size:medium;line-height:normal;font-family:sans-serif;font-variant-ligatures:normal;font-variant-position:normal;font-variant-caps:normal;font-variant-numeric:normal;font-variant-alternates:normal;font-feature-settings:normal;text-indent:0;text-align:start;text-decoration:none;text-decoration-line:none;text-decoration-style:solid;text-decoration-color:#000000;letter-spacing:normal;word-spacing:normal;text-transform:none;writing-mode:lr-tb;direction:ltr;text-orientation:mixed;dominant-baseline:auto;baseline-shift:baseline;text-anchor:start;white-space:normal;shape-padding:0;clip-rule:nonzero;display:inline;overflow:visible;visibility:visible;opacity:1;isolation:auto;mix-blend-mode:normal;color-interpolation:sRGB;color-interpolation-filters:linearRGB;solid-color:#000000;solid-opacity:1;vector-effect:none;fill:url(#radialGradient1686);fill-opacity:1;fill-rule:evenodd;stroke:none;stroke-width:10;stroke-linecap:butt;stroke-linejoin:miter;stroke-miterlimit:4;stroke-dasharray:none;stroke-dashoffset:0;stroke-opacity:1;color-rendering:auto;image-rendering:auto;shape-rendering:auto;text-rendering:auto;enable-background:accumulate"
       d="m 16,35 4,10 H 32 V 69 83.001953 H 17.996094 v 9.994141 H 64.001953 V 83.001953 H 49.998047 V 69 H 64 c 14.000001,0 8.451171,24.000001 22.451172,24 H 106 c 11.23178,0 11.41097,-9.999999 11.22852,-24 H 106 v 9 c 0,5 -5,5 -5,5 0,0 -5.000002,0 -5,-5 3e-6,-5.042579 -3.185456,-9.188036 -6.871094,-12.316406 C 92.816975,63.282809 96,59.147352 96,52 96,35.000001 78,35 78,35 Z m 34,10 h 21 c 3.865993,0 7,3.134007 7,7 0,3.865993 -3.134007,7 -7,7 H 50 Z"
       transform="scale(0.26458334)"
       id="path1094"
       inkscape:connector-curvature="0" />
  </g>
  <g
     inkscape:groupmode="layer"
     id="layer2"
     inkscape:label="Wheel"
     style="display:inline">
    <path
       style="color:#000000;font-style:normal;font-variant:normal;font-weight:normal;font-stretch:normal;font-size:medium;line-height:normal;font-family:sans-serif;font-variant-ligatures:normal;font-variant-position:normal;font-variant-caps:normal;font-variant-numeric:normal;font-variant-alternates:normal;font-feature-settings:normal;text-indent:0;text-align:start;text-decoration:none;text-decoration-line:none;text-decoration-style:solid;text-decoration-color:#000000;letter-spacing:normal;word-spacing:normal;text-transform:none;writing-mode:lr-tb;direction:ltr;text-orientation:mixed;dominant-baseline:auto;baseline-shift:baseline;text-anchor:start;white-space:normal;shape-padding:0;clip-rule:nonzero;display:inline;overflow:visible;visibility:visible;opacity:1;isolation:auto;mix-blend-mode:normal;color-interpolation:sRGB;color-interpolation-filters:linearRGB;solid-color:#000000;solid-opacity:1;vector-effect:none;fill:url(#radialGradient1678);fill-opacity:1.0;fill-rule:nonzero;stroke:none;stroke-width:10;stroke-linecap:round;stroke-linejoin:round;stroke-miterlimit:4;stroke-dasharray:none;stroke-dashoffset:0;stroke-opacity:1;paint-order:stroke fill markers;color-rendering:auto;image-rendering:auto;shape-rendering:auto;text-rendering:auto;enable-background:accumulate"
       d="M 64.023438,0.56835938 A 2.5002499,2.5002499 0 0 0 62.066406,1.484375 l -3.060547,3.7402344 c -0.461589,0.038945 -0.924271,0.073482 -1.382812,0.1230468 L 54.109375,2.2734375 A 2.5002499,2.5002499 0 0 0 50.271484,2.9667969 L 47.960938,7.234375 c -0.436627,0.1236298 -0.876116,0.2396525 -1.308594,0.3730469 l -4.044922,-2.359375 a 2.5002499,2.5002499 0 0 0 -3.646484,1.4023437 l -1.472657,4.6679684 c -0.386153,0.195206 -0.773043,0.388406 -1.154297,0.591797 L 31.875,10.341797 a 2.5002499,2.5002499 0 0 0 -3.314453,2.074219 L 27.992188,17.3125 c -0.327691,0.253352 -0.654383,0.507548 -0.976563,0.767578 l -4.722656,-0.703125 a 2.5002499,2.5002499 0 0 0 -2.857422,2.664063 l 0.369141,4.9375 c -0.268111,0.303275 -0.532993,0.609206 -0.794922,0.917968 l -4.785157,0.205078 a 2.5002499,2.5002499 0 0 0 -2.302734,3.152344 l 1.292969,4.769532 c -0.208644,0.352014 -0.41179,0.707805 -0.613282,1.064453 L 7.9511719,36.193359 A 2.5002499,2.5002499 0 0 0 6.28125,39.722656 l 2.1660156,4.417969 c -0.1406275,0.39196 -0.2678898,0.789828 -0.4003906,1.185547 l -4.3476562,1.96289 A 2.5002499,2.5002499 0 0 0 2.7246094,51.068359 L 5.6875,54.988281 c -0.063409,0.411642 -0.107293,0.829771 -0.1621094,1.244141 l -3.9082031,2.755859 a 2.5002499,2.5002499 0 0 0 -0.2285156,3.898438 l 3.6640625,3.308593 c 0.015112,0.410212 0.027289,0.820462 0.050781,1.228516 l -3.3105468,3.441406 a 2.5002499,2.5002499 0 0 0 0.5097656,3.876954 l 4.2265625,2.55664 c 0.093289,0.402985 0.1777688,0.80918 0.2792969,1.208984 L 4.2148438,82.5 a 2.5002499,2.5002499 0 0 0 1.2324218,3.705078 l 4.6386724,1.712891 c 0.167374,0.375597 0.332859,0.751613 0.507812,1.123047 L 8.7910156,93.46875 a 2.5002499,2.5002499 0 0 0 1.9121094,3.404297 l 4.896484,0.804687 c 0.22893,0.327886 0.461899,0.653568 0.697266,0.976563 l -0.927734,4.714843 a 2.5002499,2.5002499 0 0 0 2.517578,2.98242 l 4.964843,-0.13281 c 0.284567,0.27736 0.573202,0.55064 0.863282,0.82227 l -0.01953,4.80273 a 2.5002499,2.5002499 0 0 0 3.041016,2.45703 l 4.814453,-1.0664 c 0.345621,0.22855 0.69624,0.45044 1.046875,0.67187 l 0.878906,4.69141 a 2.5002499,2.5002499 0 0 0 3.447266,1.83007 l 4.478516,-1.93945 c 0.400761,0.16686 0.807749,0.32031 1.21289,0.47852 l 1.742188,4.40625 a 2.5002499,2.5002499 0 0 0 3.728516,1.14453 l 3.998046,-2.73047 c 0.440333,0.0907 0.888213,0.15944 1.332032,0.24023 l 2.523437,3.97461 a 2.5002499,2.5002499 0 0 0 3.890625,0.41993 l 3.414063,-3.44532 c 0.253362,0.003 0.503702,0.0195 0.757812,0.0195 0.199228,0 0.394982,-0.0136 0.59375,-0.0156 l 3.222656,3.41211 a 2.5002499,2.5002499 0 0 0 3.896485,-0.32422 l 2.6875,-4.00781 c 0.459627,-0.0822 0.922997,-0.15331 1.378906,-0.2461 l 3.773438,2.71094 a 2.5002499,2.5002499 0 0 0 3.765624,-1.05664 l 1.875,-4.42578 c 0.438524,-0.16948 0.877129,-0.33798 1.310547,-0.51758 l 4.216797,1.94727 a 2.5002499,2.5002499 0 0 0 3.5,-1.75 l 1.00586,-4.70508 c 0.395337,-0.24777 0.78873,-0.49906 1.177734,-0.75586 l 4.519528,1.12109 a 2.5002499,2.5002499 0 0 0 3.09961,-2.37695 l 0.0977,-4.81055 c 0.34552,-0.32117 0.68568,-0.6473 1.02343,-0.97656 l 4.64454,0.25 a 2.5002499,2.5002499 0 0 0 2.59765,-2.92383 l -0.81055,-4.716795 c 0.28391,-0.386697 0.5594,-0.780072 0.83399,-1.173828 l 4.5918,-0.634766 a 2.5002499,2.5002499 0 0 0 1.99218,-3.357422 l -1.67578,-4.441406 c 0.21384,-0.45016 0.41452,-0.906976 0.61719,-1.363281 L 122.28906,86.375 a 2.5002499,2.5002499 0 0 0 1.32032,-3.675781 l -2.46485,-4.00586 c 0.12736,-0.494896 0.23295,-0.998255 0.34766,-1.498047 l 3.97851,-2.269531 a 2.5002499,2.5002499 0 0 0 0.59766,-3.859375 l -3.19141,-3.484375 c 0.0305,-0.505307 0.0488,-1.012871 0.0664,-1.521484 l 3.47852,-2.982422 a 2.5002499,2.5002499 0 0 0 -0.14063,-3.898437 l -3.79492,-2.820313 c -0.0663,-0.509782 -0.12581,-1.021687 -0.20508,-1.527344 l 2.83398,-3.564453 a 2.5002499,2.5002499 0 0 0 -0.87109,-3.802734 l -4.26758,-2.054688 c -0.15991,-0.480116 -0.31447,-0.962913 -0.48633,-1.4375 l 2.11133,-4.050781 a 2.5002499,2.5002499 0 0 0 -1.58008,-3.574219 l -4.60156,-1.216797 c -0.24205,-0.429386 -0.48392,-0.858581 -0.73633,-1.28125 l 1.31446,-4.410156 a 2.5002499,2.5002499 0 0 0 -2.22852,-3.210937 l -4.77344,-0.322266 c -0.31,-0.365667 -0.62275,-0.727969 -0.9414,-1.085938 l 0.45898,-4.609374 a 2.5002499,2.5002499 0 0 0 -2.79101,-2.730469 l -4.76172,0.582031 c -0.37121,-0.299358 -0.7465,-0.59233 -1.125002,-0.882812 l -0.416016,-4.623047 a 2.5002499,2.5002499 0 0 0 -3.25586,-2.148438 l -4.554687,1.472656 c -0.422558,-0.224853 -0.850739,-0.441455 -1.279297,-0.65625 L 89.041016,6.7695312 A 2.5002499,2.5002499 0 0 0 85.4375,5.2773438 L 81.255859,7.5800781 C 80.797345,7.439479 80.332294,7.3151694 79.869141,7.1855469 L 77.761719,3.0488281 A 2.5002499,2.5002499 0 0 0 73.929688,2.265625 L 70.246094,5.3320312 C 69.780104,5.282733 69.308967,5.2512217 68.839844,5.2128906 L 65.972656,1.5351562 A 2.5002499,2.5002499 0 0 0 64.023438,0.56835938 Z M 64,10.886719 a 4.0000006,4.0000006 0 0 1 4,4 4.0000006,4.0000006 0 0 1 -4,4 4.0000006,4.0000006 0 0 1 -4,-4 4.0000006,4.0000006 0 0 1 4,-4 z m -9.378906,5.013672 7.257812,7.257812 c 1.17521,1.175212 3.066974,1.175212 4.242188,0 l 7.259765,-7.257812 c 14.430063,2.783418 26.573524,11.867387 33.474611,24.292968 l -4.66992,9.167969 c -0.75454,1.480853 -0.17029,3.280623 1.31054,4.035156 l 9.13672,4.65625 c 0.23481,1.950627 0.36914,3.933882 0.36914,5.949219 0,12.927298 -4.97899,24.654574 -13.119138,33.398438 L 89.720703,95.792969 c -1.641539,-0.259994 -3.171642,0.850652 -3.431641,2.492187 l -1.611328,10.162114 c -6.27914,2.91696 -13.279583,4.55468 -20.675781,4.55468 -7.397578,0 -14.399647,-1.63864 -20.679687,-4.55664 L 41.710938,98.285156 C 41.450939,96.643617 39.920833,95.532975 38.279297,95.792969 L 28.119141,97.400391 C 19.978997,88.656527 15,76.929251 15,64.001953 c 0,-2.016001 0.134185,-3.999926 0.369141,-5.951172 l 9.134765,-4.654297 c 1.480854,-0.754533 2.06508,-2.554303 1.310547,-4.035156 L 21.144531,40.195312 C 28.045386,27.768535 40.190132,18.683983 54.621094,15.900391 Z m 56.029296,28.921875 a 4.0000005,4.0000005 0 0 1 3.86133,2.763672 4.0000005,4.0000005 0 0 1 -2.56836,5.041015 4.0000005,4.0000005 0 0 1 -5.03906,-2.568359 4.0000005,4.0000005 0 0 1 2.56836,-5.041016 4.0000005,4.0000005 0 0 1 1.17773,-0.195312 z m -93.185546,0.0039 a 4.0000002,4.0000002 0 0 1 1.0625,0.191406 4.0000002,4.0000002 0 0 1 2.568359,5.041016 4.0000002,4.0000002 0 0 1 -5.039062,2.568359 4.0000002,4.0000002 0 0 1 -2.56836,-5.041015 4.0000002,4.0000002 0 0 1 3.976563,-2.759766 z m 75.289062,54.90625 a 4.0000004,4.0000004 0 0 1 3.34961,1.646484 4.0000004,4.0000004 0 0 1 -0.884766,5.58789 4.0000004,4.0000004 0 0 1 -5.587891,-0.88477 4.0000004,4.0000004 0 0 1 0.884766,-5.58789 4.0000004,4.0000004 0 0 1 2.238281,-0.761714 z m -57.791015,0.002 a 4.0000003,4.0000003 0 0 1 2.521484,0.759764 4.0000003,4.0000003 0 0 1 0.884766,5.58789 4.0000003,4.0000003 0 0 1 -5.587891,0.88477 4.0000003,4.0000003 0 0 1 -0.884766,-5.58789 4.0000003,4.0000003 0 0 1 3.066407,-1.644534 z"
       transform="scale(0.26458334)"
       id="path812"
       inkscape:connector-curvature="0" />
    <circle
       style="opacity:0.42;fill:none;fill-opacity:0.95604398;stroke:url(#radialGradient1637);stroke-width:0.5291667;stroke-linecap:round;stroke-linejoin:round;stroke-miterlimit:4;stroke-dasharray:none;stroke-dashoffset:0;stroke-opacity:1;paint-order:stroke fill markers"
       id="path1626"
       cx="16.933334"
       cy="16.933334"
       r="14.552083" />
  </g>
  <g
     inkscape:groupmode="layer"
     id="layer4"
     inkscape:label="fancy" />
  <g
     inkscape:groupmode="layer"
     id="layer5"
     inkscape:label="overlay">
    <g
       id="g2190"
       style="display:inline;opacity:0.58;filter:url(#filter2325)"
       transform="translate(7.2408522,10.576207)">
      <path
         inkscape:connector-curvature="0"
         id="path1094-4"
         d="m -2.9877066,-1.2821824 1.0583334,2.6458336 h 3.175 v 6.35 3.7046828 h -3.7052001 v 2.644283 H 9.7128103 v -2.644283 h -3.7052 V 7.7136512 h 3.704683 c 3.7041667,0 2.2360387,6.3499998 5.9402057,6.3499998 h 5.172294 c 2.971742,0 3.019153,-2.645833 2.97088,-6.3499998 h -2.97088 v 2.3812498 c 0,1.322917 -1.322916,1.322917 -1.322916,1.322917 0,0 -1.322918,0 -1.322917,-1.322917 1e-6,-1.3341828 -0.842819,-2.4310008 -1.817977,-3.2587158 0.975802,-0.635208 1.817977,-1.729381 1.817977,-3.620451 0,-4.4979163 -4.7625,-4.4979166 -4.7625,-4.4979166 z m 8.9958339,2.6458336 h 5.5562497 c 1.022877,0 1.852083,0.829206 1.852083,1.852083 0,1.022877 -0.829206,1.852083 -1.852083,1.852083 H 6.0081273 Z"
         style="color:#000000;font-style:normal;font-variant:normal;font-weight:normal;font-stretch:normal;font-size:medium;line-height:normal;font-family:sans-serif;font-variant-ligatures:normal;font-variant-position:normal;font-variant-caps:normal;font-variant-numeric:normal;font-variant-alternates:normal;font-feature-settings:normal;text-indent:0;text-align:start;text-decoration:none;text-decoration-line:none;text-decoration-style:solid;text-decoration-color:#000000;letter-spacing:normal;word-spacing:normal;text-transform:none;writing-mode:lr-tb;direction:ltr;text-orientation:mixed;dominant-baseline:auto;baseline-shift:baseline;text-anchor:start;white-space:normal;shape-padding:0;clip-rule:nonzero;display:inline;overflow:visible;visibility:visible;opacity:1;isolation:auto;mix-blend-mode:normal;color-interpolation:sRGB;color-interpolation-filters:linearRGB;solid-color:#000000;solid-opacity:1;vector-effect:none;fill:url(#radialGradient1686-9);fill-opacity:1;fill-rule:evenodd;stroke:none;stroke-width:2.64583325;stroke-linecap:butt;stroke-linejoin:miter;stroke-miterlimit:4;stroke-dasharray:none;stroke-dashoffset:0;stroke-opacity:1;color-rendering:auto;image-rendering:auto;shape-rendering:auto;text-rendering:auto;enable-background:accumulate" />
      <path
         inkscape:connector-curvature="0"
         id="path812-2"
         d="m 9.7184953,-10.392221 a 0.66152446,0.66152446 0 0 0 -0.517798,0.242363 l -0.80977,0.9896035 c -0.122129,0.010304 -0.244547,0.019442 -0.365869,0.032556 l -0.929659,-0.8133869 a 0.66152446,0.66152446 0 0 0 -1.015442,0.1834513 l -0.611332,1.1291301 c -0.115524,0.03271 -0.231806,0.063408 -0.346232,0.098702 l -1.070219,-0.6242513 a 0.66152446,0.66152446 0 0 0 -0.964799,0.3710368 L 2.6977345,-7.54795 C 2.5955649,-7.496302 2.4932002,-7.4451842 2.3923268,-7.3913703 L 1.2125539,-7.8063319 a 0.66152446,0.66152446 0 0 0 -0.87694898,0.5488037 l -0.1503783,1.2955281 c -0.0867016,0.067033 -0.1731389,0.1342887 -0.2583823,0.2030883 L -1.3226918,-5.9449469 a 0.66152446,0.66152446 0 0 0 -0.7560263,0.7048666 l 0.097669,1.3063803 c -0.070938,0.080242 -0.1410215,0.1611857 -0.2103235,0.242879 l -1.2660728,0.05426 a 0.66152446,0.66152446 0 0 0 -0.6092651,0.8340577 l 0.3420981,1.2619387 c -0.055204,0.093137 -0.1089528,0.1872734 -0.1622642,0.2816365 l -1.2304159,0.29248837 a 0.66152446,0.66152446 0 0 0 -0.4418335,0.9337937 L -4.9860343,1.136274 C -5.0232423,1.239981 -5.0569133,1.34525 -5.091971,1.44995 l -1.1503174,0.519348 a 0.66152446,0.66152446 0 0 0 -0.2578654,0.999939 l 0.7839315,1.037146 c -0.016777,0.108914 -0.028388,0.219544 -0.042892,0.329179 l -1.0340453,0.729155 a 0.66152446,0.66152446 0 0 0 -0.060461,1.031462 l 0.9694503,0.875398 c 0.004,0.108535 0.00722,0.217081 0.013436,0.325045 l -0.8759155,0.910539 a 0.66152446,0.66152446 0 0 0 0.1348755,1.025777 l 1.1182778,0.676444 c 0.024683,0.106624 0.047035,0.214096 0.073897,0.319877 l -0.686263,1.056267 a 0.66152446,0.66152446 0 0 0 0.3260783,0.980302 l 1.2273154,0.453202 c 0.044284,0.09938 0.088069,0.198864 0.1343587,0.29714 l -0.4769736,1.171504 a 0.66152446,0.66152446 0 0 0 0.5059124,0.900721 l 1.2955281,0.212906 c 0.060571,0.08675 0.1222107,0.172924 0.1844849,0.258383 l -0.2454626,1.247468 a 0.66152446,0.66152446 0 0 0 0.6661092,0.789098 l 1.3136147,-0.03514 c 0.075292,0.07339 0.1516597,0.14569 0.22841002,0.217559 l -0.00517,1.270722 a 0.66152446,0.66152446 0 0 0 0.8046022,0.65009 L 1.1267688,19.417329 c 0.091446,0.06047 0.1842135,0.119179 0.2769857,0.177765 l 0.2325438,1.241269 a 0.66152446,0.66152446 0 0 0 0.9120892,0.484206 l 1.1849408,-0.513146 c 0.106034,0.04415 0.213717,0.08475 0.32091,0.126609 l 0.460954,1.16582 a 0.66152446,0.66152446 0 0 0 0.986503,0.302824 l 1.057817,-0.722437 c 0.116504,0.024 0.235006,0.04219 0.352433,0.06356 l 0.667659,1.051615 a 0.66152446,0.66152446 0 0 0 1.029395,0.111107 l 0.903304,-0.911575 c 0.06704,7.94e-4 0.133271,0.0052 0.200505,0.0052 0.05271,0 0.104505,-0.0036 0.157096,-0.0041 l 0.8526607,0.902788 a 0.66152446,0.66152446 0 0 0 1.030945,-0.08578 l 0.711068,-1.060399 c 0.121609,-0.02175 0.244209,-0.04056 0.364835,-0.06511 l 0.998389,0.717269 a 0.66152446,0.66152446 0 0 0 0.996321,-0.279569 l 0.496094,-1.170988 c 0.116026,-0.04484 0.232074,-0.08942 0.346749,-0.136943 l 1.115694,0.515215 a 0.66152446,0.66152446 0 0 0 0.926042,-0.46302 l 0.266134,-1.244886 c 0.104599,-0.06556 0.208685,-0.132043 0.311609,-0.199988 l 1.195791,0.296622 a 0.66152446,0.66152446 0 0 0 0.820105,-0.628902 l 0.02585,-1.272791 c 0.09142,-0.08498 0.18142,-0.171265 0.270783,-0.258382 l 1.228868,0.06615 a 0.66152446,0.66152446 0 0 0 0.687295,-0.773596 l -0.214458,-1.247985 c 0.07512,-0.102314 0.148007,-0.206394 0.220659,-0.310575 l 1.214914,-0.167949 a 0.66152446,0.66152446 0 0 0 0.527098,-0.888318 l -0.443384,-1.175122 c 0.05658,-0.119105 0.109675,-0.23997 0.163299,-0.360701 l 1.151339,-0.392222 a 0.66152446,0.66152446 0 0 0 0.349335,-0.97255 l -0.652155,-1.059962 c 0.0337,-0.130941 0.06163,-0.264122 0.09199,-0.3963578 l 1.052647,-0.60048 a 0.66152446,0.66152446 0 0 0 0.158131,-1.021127 l -0.844399,-0.921907 c 0.0081,-0.133696 0.01291,-0.267989 0.01757,-0.402559 l 0.920359,-0.7891 a 0.66152446,0.66152446 0 0 0 -0.03721,-1.031461 l -1.004073,-0.746208 c -0.01754,-0.13488 -0.03329,-0.270321 -0.05426,-0.40411 l 0.749824,-0.943095 a 0.66152446,0.66152446 0 0 0 -0.230476,-1.00614 l -1.12913,-0.543636 c -0.04231,-0.12703 -0.0832,-0.254771 -0.128675,-0.380338 l 0.558623,-1.07176903 a 0.66152446,0.66152446 0 0 0 -0.418064,-0.9456793 L 23.317145,-1.2475593 c -0.06404,-0.1136083 -0.128038,-0.2271662 -0.194821,-0.3389974 l 0.347784,-1.1668537 a 0.66152446,0.66152446 0 0 0 -0.589629,-0.8495605 l -1.262973,-0.085266 c -0.08202,-0.096749 -0.164769,-0.1926085 -0.249079,-0.2873211 l 0.121439,-1.2195635 a 0.66152446,0.66152446 0 0 0 -0.738455,-0.7224366 l -1.259872,0.1539957 C 19.393323,-5.8427678 19.294028,-5.9202833 19.193883,-5.99714 L 19.083812,-7.2203212 A 0.66152446,0.66152446 0 0 0 18.222365,-7.788762 l -1.205094,0.3896402 C 16.905469,-7.4586142 16.79218,-7.5159235 16.67879,-7.5727546 l -0.341061,-1.1787393 a 0.66152446,0.66152446 0 0 0 -0.95343,-0.3948079 l -1.106393,0.6092651 c -0.121315,-0.0372 -0.24436,-0.07009 -0.366902,-0.1043864 L 13.353415,-9.73593 a 0.66152446,0.66152446 0 0 0 -1.013892,-0.2072225 l -0.974617,0.81132 c -0.123294,-0.013043 -0.247949,-0.021381 -0.372071,-0.031523 l -0.75861,-0.9730665 a 0.66152446,0.66152446 0 0 0 -0.5157297,-0.255799 z m -0.0062,2.7300663 a 1.0583335,1.0583335 0 0 1 1.0583337,1.0583333 1.0583335,1.0583335 0 0 1 -1.0583337,1.0583334 1.0583335,1.0583335 0 0 1 -1.058333,-1.0583334 1.0583335,1.0583335 0 0 1 1.058333,-1.0583333 z m -2.481502,1.3265341 1.920296,1.9202961 c 0.310941,0.3109415 0.81147,0.3109415 1.1224117,0 l 1.920813,-1.9202961 c 3.817954,0.736446 7.030912,3.1399128 8.856824,6.42751477 L 19.815553,2.5175852 c -0.199638,0.39181 -0.04505,0.867999 0.346748,1.067636 l 2.417423,1.231966 c 0.06213,0.516103 0.09767,1.040839 0.09767,1.574064 0,3.420348 -1.317358,6.5231888 -3.471106,8.8366698 l -2.688725,-0.425297 c -0.434324,-0.06879 -0.839164,0.225068 -0.907955,0.659391 l -0.426331,2.688725 c -1.661356,0.771779 -3.513556,1.205093 -5.4704667,1.205093 -1.957276,0 -3.809907,-0.433557 -5.471501,-1.205611 l -0.42633,-2.688207 C 3.7461893,15.027691 3.3413473,14.733834 2.9070242,14.802624 L 0.21881622,15.227921 C -1.9349303,12.91444 -3.2522899,9.8115992 -3.2522899,6.3912512 c 0,-0.5334 0.035503,-1.058314 0.097669,-1.574581 l 2.41690622,-1.231449 c 0.3918093,-0.199637 0.5463857,-0.675826 0.3467489,-1.067636 L -1.6265494,0.09241017 C 0.19930192,-3.1955075 3.4125993,-5.5991286 7.2307913,-6.3356206 Z M 22.055209,1.3166252 a 1.0583335,1.0583335 0 0 1 1.021644,0.731222 1.0583335,1.0583335 0 0 1 -0.679546,1.333768 1.0583335,1.0583335 0 0 1 -1.333251,-0.679545 1.0583335,1.0583335 0 0 1 0.679545,-1.333768 1.0583335,1.0583335 0 0 1 0.311608,-0.05168 z m -24.6553422,10e-4 a 1.0583334,1.0583334 0 0 1 0.2811198,0.05064 1.0583334,1.0583334 0 0 1 0.6795449,1.333769 1.0583334,1.0583334 0 0 1 -1.3332518,0.679545 1.0583334,1.0583334 0 0 1 -0.6795452,-1.333769 1.0583334,1.0583334 0 0 1 1.0521323,-0.730188 z M 17.320098,15.844936 a 1.0583334,1.0583334 0 0 1 0.886251,0.435631 1.0583334,1.0583334 0 0 1 -0.234095,1.478463 1.0583334,1.0583334 0 0 1 -1.478463,-0.234095 1.0583334,1.0583334 0 0 1 0.234095,-1.478462 1.0583334,1.0583334 0 0 1 0.592212,-0.201537 z m -15.2905396,5.29e-4 a 1.0583334,1.0583334 0 0 1 0.6671427,0.201021 1.0583334,1.0583334 0 0 1 0.2340942,1.478462 1.0583334,1.0583334 0 0 1 -1.4784627,0.234095 1.0583334,1.0583334 0 0 1 -0.2340944,-1.478462 1.0583334,1.0583334 0 0 1 0.8113202,-0.435116 z"
         style="color:#000000;font-style:normal;font-variant:normal;font-weight:normal;font-stretch:normal;font-size:medium;line-height:normal;font-family:sans-serif;font-variant-ligatures:normal;font-variant-position:normal;font-variant-caps:normal;font-variant-numeric:normal;font-variant-alternates:normal;font-feature-settings:normal;text-indent:0;text-align:start;text-decoration:none;text-decoration-line:none;text-decoration-style:solid;text-decoration-color:#000000;letter-spacing:normal;word-spacing:normal;text-transform:none;writing-mode:lr-tb;direction:ltr;text-orientation:mixed;dominant-baseline:auto;baseline-shift:baseline;text-anchor:start;white-space:normal;shape-padding:0;clip-rule:nonzero;display:inline;overflow:visible;visibility:visible;opacity:1;isolation:auto;mix-blend-mode:normal;color-interpolation:sRGB;color-interpolation-filters:linearRGB;solid-color:#000000;solid-opacity:1;vector-effect:none;fill:url(#radialGradient1678-2);fill-opacity:1;fill-rule:nonzero;stroke:none;stroke-width:2.64583325;stroke-linecap:round;stroke-linejoin:round;stroke-miterlimit:4;stroke-dasharray:none;stroke-dashoffset:0;stroke-opacity:1;paint-order:stroke fill markers;color-rendering:auto;image-rendering:auto;shape-rendering:auto;text-rendering:auto;enable-background:accumulate" />
      <circle
         r="14.552082"
         cy="6.3907361"
         cx="9.7122946"
         id="path1626-7"
         style="display:inline;opacity:0.42000002;fill:none;fill-opacity:0.95604398;stroke:url(#radialGradient1637-8);stroke-width:0.5291667;stroke-linecap:round;stroke-linejoin:round;stroke-miterlimit:4;stroke-dasharray:none;stroke-dashoffset:0;stroke-opacity:1;paint-order:stroke fill markers" />
    </g>
  </g>
</svg>
