<?xml version="1.0" encoding="UTF-8" standalone="no"?>
<!-- Created with Inkscape (http://www.inkscape.org/) -->

<svg
   xmlns:dc="http://purl.org/dc/elements/1.1/"
   xmlns:cc="http://creativecommons.org/ns#"
   xmlns:rdf="http://www.w3.org/1999/02/22-rdf-syntax-ns#"
   xmlns:svg="http://www.w3.org/2000/svg"
   xmlns="http://www.w3.org/2000/svg"
   xmlns:xlink="http://www.w3.org/1999/xlink"
   xmlns:sodipodi="http://sodipodi.sourceforge.net/DTD/sodipodi-0.dtd"
   xmlns:inkscape="http://www.inkscape.org/namespaces/inkscape"
   width="128"
   height="128"
   viewBox="0 0 33.866667 33.866667"
   version="1.1"
   id="svg8"
   inkscape:version="0.92.4 5da689c313, 2019-01-14"
   sodipodi:docname="V8.svg"
   inkscape:export-filename="/home/vp/rust/logo_rework/V8.png"
   inkscape:export-xdpi="600"
   inkscape:export-ydpi="600">
  <defs
     id="defs2" />
  <sodipodi:namedview
     id="base"
     pagecolor="#ffffff"
     bordercolor="#666666"
     borderopacity="1.0"
     inkscape:pageopacity="0.0"
     inkscape:pageshadow="2"
     inkscape:zoom="6.5085689"
     inkscape:cx="91.351373"
     inkscape:cy="64.127949"
     inkscape:document-units="px"
     inkscape:current-layer="layer1"
     showgrid="false"
     units="px"
     width="1920px"
     inkscape:window-width="1920"
     inkscape:window-height="1021"
     inkscape:window-x="0"
     inkscape:window-y="0"
     inkscape:window-maximized="1"
     showguides="true"
     inkscape:guide-bbox="true">
    <sodipodi:guide
       position="16.933333,-3.96875"
       orientation="1,0"
       id="guide820"
       inkscape:locked="false"
       inkscape:label=""
       inkscape:color="rgb(0,0,255)" />
    <sodipodi:guide
       position="-5.882479,16.933333"
       orientation="0,1"
       id="guide840"
       inkscape:locked="false"
       inkscape:label=""
       inkscape:color="rgb(0,0,255)" />
    <sodipodi:guide
       position="-4.9578498,23.283334"
       orientation="0,1"
       id="guide1073"
       inkscape:locked="false"
       inkscape:label=""
       inkscape:color="rgb(0,0,255)" />
    <sodipodi:guide
       position="-7.9980407,10.583333"
       orientation="0,1"
       id="guide1075"
       inkscape:locked="false"
       inkscape:label=""
       inkscape:color="rgb(0,0,255)" />
    <sodipodi:guide
       position="8.4666667,-3.96875"
       orientation="1,0"
       id="guide1090"
       inkscape:locked="false"
       inkscape:label=""
       inkscape:color="rgb(0,0,255)" />
    <sodipodi:guide
       position="25.4,-2.1166667"
       orientation="1,0"
       id="guide1092"
       inkscape:locked="false"
       inkscape:label=""
       inkscape:color="rgb(0,0,255)" />
    <sodipodi:guide
       position="20.6375,-0.3252123"
       orientation="1,0"
       id="guide1105"
       inkscape:locked="false"
       inkscape:label=""
       inkscape:color="rgb(0,0,255)" />
    <sodipodi:guide
       position="-2.0325769,15.610417"
       orientation="0,1"
       id="guide1107"
       inkscape:locked="false"
       inkscape:label=""
       inkscape:color="rgb(0,0,255)" />
    <sodipodi:guide
       position="-3.252123,9.2604168"
       orientation="0,1"
       id="guide1111"
       inkscape:locked="false"
       inkscape:label=""
       inkscape:color="rgb(0,0,255)" />
    <sodipodi:guide
       position="-2.1545315,24.60625"
       orientation="0,1"
       id="guide1115"
       inkscape:locked="false"
       inkscape:label=""
       inkscape:color="rgb(0,0,255)" />
    <sodipodi:guide
       position="-3.8618961,21.960417"
       orientation="0,1"
       id="guide1117"
       inkscape:locked="false"
       inkscape:label=""
       inkscape:color="rgb(0,0,255)" />
    <sodipodi:guide
       position="13.229167,0"
       orientation="1,0"
       id="guide1119"
       inkscape:locked="false"
       inkscape:label=""
       inkscape:color="rgb(0,0,255)" />
    <sodipodi:guide
       position="35.71875,11.90625"
       orientation="0,1"
       id="guide843"
       inkscape:locked="false"
       inkscape:label=""
       inkscape:color="rgb(0,0,255)" />
    <sodipodi:guide
       position="37.399415,18.25625"
       orientation="0,1"
       id="guide1467"
       inkscape:locked="false"
       inkscape:label=""
       inkscape:color="rgb(0,0,255)" />
    <inkscape:grid
       type="xygrid"
       id="grid1488" />
  </sodipodi:namedview>
  <metadata
     id="metadata5">
    <rdf:RDF>
      <cc:Work
         rdf:about="">
        <dc:format>image/svg+xml</dc:format>
        <dc:type
           rdf:resource="http://purl.org/dc/dcmitype/StillImage" />
        <dc:title></dc:title>
      </cc:Work>
    </rdf:RDF>
  </metadata>
  <g
     inkscape:groupmode="layer"
     id="layer1"
     inkscape:label="Paper">
    <rect
       style="opacity:1;fill:#fffffe;fill-opacity:1;stroke:none;stroke-width:4.76250029;stroke-linecap:round;stroke-linejoin:round;stroke-miterlimit:4;stroke-dasharray:none;stroke-dashoffset:0;stroke-opacity:1;paint-order:stroke fill markers"
       id="rect1510"
       width="33.866669"
       height="33.866669"
       x="0"
       y="-1.7011719e-06" />
  </g>
  <g
     inkscape:groupmode="layer"
     id="layer2"
     inkscape:label="Wheel"
     sodipodi:insensitive="true">
    <circle
       style="opacity:1;fill:none;fill-opacity:1;stroke:#000000;stroke-width:2.64583325;stroke-linecap:round;stroke-linejoin:round;stroke-miterlimit:4;stroke-dasharray:none;stroke-dashoffset:0;stroke-opacity:1;paint-order:stroke fill markers"
       id="path812"
       cx="16.933334"
       cy="16.933334"
       r="14.2875" />
    <path
       sodipodi:type="star"
       style="opacity:1;fill:none;fill-opacity:1;stroke:#000000;stroke-width:1.32291663;stroke-linecap:round;stroke-linejoin:round;stroke-miterlimit:4;stroke-dasharray:none;stroke-dashoffset:0;stroke-opacity:1;paint-order:stroke fill markers"
       id="path814"
       sodipodi:sides="33"
       sodipodi:cx="16.912773"
       sodipodi:cy="16.935005"
       sodipodi:r1="16.122553"
       sodipodi:r2="14.467414"
       sodipodi:arg1="-1.5695211"
       sodipodi:arg2="-1.4766823"
       inkscape:flatsided="false"
       inkscape:rounded="0"
       inkscape:randomized="0"
       d="m 16.933333,0.81246543 1.339018,1.71915077 1.711821,-1.4239045 0.989469,1.9414942 1.950362,-1.0742083 0.604157,2.093667 2.118412,-0.6856874 0.19701,2.1701692 2.209897,-0.2723841 -0.217257,2.1682359 2.22151,0.150764 -0.623672,2.0879368 2.152832,0.568463 -1.007547,1.932174 2.006346,0.965617 -1.355005,1.706578 1.787344,1.327869 -1.653491,1.419302 1.503744,1.64213 -1.892215,1.080728 1.165794,1.897041 -2.062549,0.703093 0.785709,2.083386 -2.158337,0.300048 0.377227,2.194434 -2.176118,-0.113843 -0.04489,2.226168 -2.115248,-0.523618 -0.465383,2.177442 -1.977927,-0.914469 -0.869057,2.050019 -1.769118,-1.272268 -1.241321,1.848502 -1.49637,-1.584084 -1.56872,1.580175 -1.169538,-1.838648 -1.839421,1.254738 -0.800437,-2.026758 -2.0436416,0.883951 -0.4024057,-2.141616 -2.1739986,0.481215 0.01017,-2.179069 -2.225782,0.06109 L 5.1370842,25.339719 2.9399642,24.97847 3.7592837,22.959271 1.6702354,22.188742 2.8568845,20.36109 0.9514116,19.209131 2.4625018,17.639082 0.80947302,16.147327 2.5903896,14.891627 1.2495497,13.113992 3.2359256,12.218024 2.255736,10.218758 4.3757786,9.714906 3.7916659,7.566267 5.9687511,7.4727408 5.8018267,5.2523864 7.9572692,5.5725665 8.2135661,3.3607461 l 2.0558959,0.7223142 0.670256,-2.1233454 1.882044,1.0983419 1.059989,-1.9581271 1.640171,1.4346728 z"
       inkscape:transform-center-x="0.2914874"
       inkscape:transform-center-y="0.33435991" />
    <g
       id="g868"
       inkscape:transform-center-y="-12.844787"
       transform="translate(5.8009907e-7,0.01974015)"
       inkscape:tile-cx="16.933334"
       inkscape:tile-cy="16.904094"
       inkscape:tile-w="4.5823628"
       inkscape:tile-h="4.5823628"
       inkscape:tile-x0="14.642152"
       inkscape:tile-y0="1.6129126">
      <path
         style="opacity:1;fill:#000000;fill-opacity:1;stroke:none;stroke-width:5.00000048;stroke-linecap:round;stroke-linejoin:round;stroke-miterlimit:4;stroke-dasharray:none;stroke-dashoffset:0;stroke-opacity:1;paint-order:stroke fill markers"
         d="m 58.375,6.8632812 -4.275391,4.2753908 c -1.175211,1.175211 -1.175211,3.066976 0,4.242187 l 7.779297,7.777344 c 1.175212,1.175212 3.066976,1.175212 4.242188,0 l 7.779297,-7.777344 c 1.175211,-1.175211 1.175211,-3.066976 0,-4.242187 L 69.625,6.8632812 Z"
         transform="matrix(0.26458334,0,0,0.26458334,-5.8009908e-7,-0.01974015)"
         id="rect864"
         inkscape:connector-curvature="0" />
      <circle
         cy="3.9191406"
         cx="16.933332"
         id="path862"
         style="opacity:1;fill:#ffffff;fill-opacity:1;stroke:none;stroke-width:1.32291663;stroke-linecap:round;stroke-linejoin:round;stroke-miterlimit:4;stroke-dasharray:none;stroke-dashoffset:0;stroke-opacity:1;paint-order:stroke fill markers"
         r="1.0583334" />
    </g>
    <use
       x="0"
       y="0"
       xlink:href="#g868"
       inkscape:transform-center-y="-4.148451"
       id="use1046"
       transform="rotate(-72.000001,16.933333,16.932982)"
       width="100%"
       height="100%"
       inkscape:transform-center-x="12.426662" />
    <use
       x="0"
       y="0"
       xlink:href="#use1046"
       inkscape:transform-center-x="7.8908225"
       inkscape:transform-center-y="10.753457"
       id="use1048"
       transform="rotate(-72.000001,16.933333,16.932982)"
       width="100%"
       height="100%" />
    <use
       x="0"
       y="0"
       xlink:href="#use1048"
       inkscape:transform-center-x="-7.8908224"
       inkscape:transform-center-y="10.753457"
       id="use1050"
       transform="rotate(-72.000001,16.933333,16.932982)"
       width="100%"
       height="100%" />
    <use
       x="0"
       y="0"
       xlink:href="#use1050"
       inkscape:transform-center-x="-12.426661"
       inkscape:transform-center-y="-4.1484512"
       id="use1052"
       transform="rotate(-72.000001,16.933333,16.932982)"
       width="100%"
       height="100%" />
  </g>
  <g
     inkscape:groupmode="layer"
     id="layer3"
     inkscape:label="Letter"
     sodipodi:insensitive="true">
    <path
       style="fill:none;fill-rule:evenodd;stroke:#000000;stroke-width:2.64583325;stroke-linecap:butt;stroke-linejoin:miter;stroke-miterlimit:4;stroke-dasharray:none;stroke-opacity:1"
       d="M 3.96875,23.283334 H 16.933333"
       id="path1094"
       inkscape:connector-curvature="0"
       sodipodi:nodetypes="cc" />
    <path
       style="fill:none;fill-rule:evenodd;stroke:#000000;stroke-width:4.76250029;stroke-linecap:butt;stroke-linejoin:miter;stroke-miterlimit:4;stroke-dasharray:none;stroke-opacity:1"
       d="M 10.847917,23.283334 V 10.583333"
       id="path1096"
       inkscape:connector-curvature="0" />
    <path
       style="fill:#000400;fill-opacity:1;fill-rule:evenodd;stroke:none;stroke-width:2;stroke-linecap:butt;stroke-linejoin:miter;stroke-miterlimit:4;stroke-dasharray:none;stroke-opacity:1"
       d="m 19.052061,35 3.994814,9.999999 H 32 l -1e-6,23.999999 h 45.999999 c 0,0 18,0 18,-16.999999 C 95.999998,35 77.999998,35 77.999998,35 Z"
       transform="scale(0.26458334)"
       id="path1098"
       inkscape:connector-curvature="0"
       sodipodi:nodetypes="ccccczcc" />
    <circle
       style="opacity:1;fill:#ffffff;fill-opacity:1;stroke:none;stroke-width:2.64583349;stroke-linecap:round;stroke-linejoin:round;stroke-miterlimit:4;stroke-dasharray:none;stroke-dashoffset:0;stroke-opacity:1;paint-order:stroke fill markers"
       id="path1100"
       cx="18.785418"
       cy="13.758333"
       r="1.8520833" />
    <rect
       style="opacity:1;fill:#ffffff;fill-opacity:1;stroke:none;stroke-width:2.11666679;stroke-linecap:round;stroke-linejoin:round;stroke-miterlimit:4;stroke-dasharray:none;stroke-dashoffset:0;stroke-opacity:1;paint-order:stroke fill markers"
       id="rect1109"
       width="5.5562487"
       height="3.7041664"
       x="13.229167"
       y="11.90625" />
    <path
       sodipodi:nodetypes="czzccczcscc"
       inkscape:connector-curvature="0"
       id="path922"
       transform="scale(0.26458334)"
       d="m 31.999999,68.999998 h 31.999998 c 14.000001,0 8.450398,24.000001 22.450399,24 h 22.790484 l 7.98829,-24 H 106 c 0,0 0,4 0,9.000001 0,5 -5,5 -5,5 0,0 -5.000002,0 -5,-5 C 96.000006,66.000001 77.999998,59 77.999998,59 Z"
       style="fill:#0e0000;fill-opacity:1;fill-rule:evenodd;stroke:none;stroke-width:1;stroke-linecap:butt;stroke-linejoin:miter;stroke-miterlimit:4;stroke-dasharray:none;stroke-opacity:1" />
  </g>
</svg>
